<?xml version="1.0" standalone="no"?>
<!DOCTYPE svg PUBLIC "-//W3C//DTD SVG 1.1//EN" "http://www.w3.org/Graphics/SVG/1.1/DTD/svg11.dtd">
<svg xmlns="http://www.w3.org/2000/svg">
<metadata>Copyright (C) 2013 by original authors @ fontello.com</metadata>
<defs>
<font id="tajemnik" horiz-adv-x="1000" >
<font-face font-family="tajemnik" font-weight="400" font-stretch="normal" units-per-em="1000" ascent="850" descent="-150" />
<missing-glyph horiz-adv-x="1000" />
<glyph glyph-name="mail-alt" unicode="&#xe801;" d="m1000 454v-443q0-37-26-63t-63-27h-822q-36 0-63 27t-26 63v443q25-28 56-49q202-137 278-192q32-24 51-37t53-27t61-13h2q28 0 61 13t53 27t51 37q95 68 278 192q32 22 56 49z m0 164q0-44-27-84t-68-69q-210-146-262-181q-5-4-23-17t-30-22t-29-18t-33-15t-27-5h-2q-12 0-27 5t-33 15t-29 18t-30 22t-23 17q-51 35-147 101t-114 80q-35 23-65 64t-31 77q0 43 23 72t66 29h822q36 0 62-26t27-63z" horiz-adv-x="1000" />
<glyph glyph-name="circle" unicode="&#xe807;" d="m857 350q0-117-57-215t-156-156t-215-58t-216 58t-155 156t-58 215t58 215t155 156t216 58t215-58t156-156t57-215z" horiz-adv-x="857.1" />
<glyph glyph-name="user" unicode="&#xe802;" d="m786 66q0-67-41-106t-108-39h-488q-67 0-108 39t-41 106q0 30 2 58t8 61t15 60t24 55t34 45t48 30t62 11q5 0 24-12t41-27t60-27t75-12t74 12t61 27t41 27t24 12q34 0 62-11t48-30t34-45t24-55t15-60t8-61t2-58z m-179 498q0-88-63-151t-151-63t-152 63t-62 151t62 152t152 63t151-63t63-152z" horiz-adv-x="785.7" />
<glyph glyph-name="ok" unicode="&#xe800;" d="m932 534q0-22-15-38l-404-404l-76-76q-16-15-38-15t-38 15l-76 76l-202 202q-15 16-15 38t15 38l76 76q16 16 38 16t38-16l164-165l366 367q16 16 38 16t38-16l76-76q15-16 15-38z" horiz-adv-x="1000" />
<glyph glyph-name="cancel" unicode="&#xe80b;" d="m724 112q0-22-15-38l-76-76q-16-15-38-15t-38 15l-164 165l-164-165q-16-15-38-15t-38 15l-76 76q-16 16-16 38t16 38l164 164l-164 164q-16 16-16 38t16 38l76 76q16 16 38 16t38-16l164-164l164 164q16 16 38 16t38-16l76-76q15-15 15-38t-15-38l-164-164l164-164q15-15 15-38z" horiz-adv-x="785.7" />
<glyph glyph-name="plus" unicode="&#xe809;" d="m786 439v-107q0-22-16-38t-38-15h-232v-233q0-22-16-37t-38-16h-107q-22 0-38 16t-15 37v233h-232q-23 0-38 15t-16 38v107q0 23 16 38t38 16h232v232q0 22 15 38t38 16h107q23 0 38-16t16-38v-232h232q22 0 38-16t16-38z" horiz-adv-x="785.7" />
<glyph glyph-name="home" unicode="&#xe80c;" d="m786 296v-267q0-15-11-26t-25-10h-214v214h-143v-214h-214q-15 0-25 10t-11 26v267q0 1 0 2t0 2l321 264l321-264q1-1 1-4z m124 39l-34-41q-5-5-12-6h-2q-7 0-12 3l-386 322l-386-322q-7-4-13-4q-7 2-12 7l-35 41q-4 5-3 13t6 12l401 334q18 15 42 15t43-15l136-114v109q0 8 5 13t13 5h107q8 0 13-5t5-13v-227l122-102q5-5 6-12t-4-13z" horiz-adv-x="928.6" />
<glyph glyph-name="star" unicode="&#xe80a;" d="m929 489q0-12-15-27l-203-197l48-279q1-4 1-12q0-11-6-19t-17-9q-10 0-22 7l-251 132l-250-132q-13-7-23-7q-11 0-17 9t-6 19q0 4 1 12l48 279l-203 197q-14 15-14 27q0 21 31 26l280 40l126 254q11 23 27 23t28-23l125-254l280-40q32-5 32-26z" horiz-adv-x="928.6" />
<glyph glyph-name="phone" unicode="&#xe808;" d="m786 158q0-15-6-39t-12-38q-11-28-68-60q-52-28-103-28q-16 0-30 2t-32 7t-26 8t-31 11t-28 10q-54 20-97 47q-72 44-148 120t-120 148q-27 43-46 97q-2 5-10 28t-12 31t-8 26t-7 32t-2 29q0 52 29 104q31 56 59 68q14 6 38 12t39 6q8 0 12-2q10-3 30-43q6-10 16-30t20-35t17-30q2-2 10-14t12-20t4-16q0-11-16-28t-35-30t-34-30t-16-25q0-5 3-13t4-11t8-14t7-10q42-77 97-132t131-97q1 0 10-6t14-8t11-5t13-2q10 0 25 15t30 35t31 35t28 16q7 0 15-4t20-12t14-10q14-8 30-17t35-20t31-17q39-19 42-29q2-4 2-12z" horiz-adv-x="785.7" />
<glyph glyph-name="clock" unicode="&#xe80e;" d="m500 546v-250q0-7-5-12t-13-5h-178q-8 0-13 5t-5 12v36q0 8 5 13t13 5h125v196q0 8 5 13t12 5h36q8 0 13-5t5-13z m232-196q0 83-41 152t-110 111t-152 41t-153-41t-110-111t-41-152t41-152t110-111t153-41t152 41t110 111t41 152z m125 0q0-117-57-215t-156-156t-215-58t-216 58t-155 156t-58 215t58 215t155 156t216 58t215-58t156-156t57-215z" horiz-adv-x="857.1" />
<glyph glyph-name="angle-circled-left" unicode="&#xe806;" d="m507 72l57 56q11 11 11 26t-11 25l-171 171l171 171q11 11 11 25t-11 25l-57 57q-10 11-25 11t-25-11l-253-253q-11-11-11-25t11-25l253-254q11-10 25-10t25 10z m350 278q0-117-57-215t-156-156t-215-58t-216 58t-155 156t-58 215t58 215t155 156t216 58t215-58t156-156t57-215z" horiz-adv-x="857.1" />
<glyph glyph-name="angle-circled-right" unicode="&#xe805;" d="m400 72l253 253q11 11 11 25t-11 25l-253 253q-10 11-25 11t-25-11l-57-56q-11-11-11-26t11-25l171-171l-171-171q-11-11-11-25t11-26l57-57q11-10 25-10t25 10z m457 278q0-117-57-215t-156-156t-215-58t-216 58t-155 156t-58 215t58 215t155 156t216 58t215-58t156-156t57-215z" horiz-adv-x="857.1" />
<glyph glyph-name="angle-circled-up" unicode="&#xe804;" d="m650 214l57 57q11 11 11 25t-11 26l-253 253q-11 10-25 10t-26-10l-253-254q-10-10-10-25t10-25l57-57q11-10 25-10t25 10l172 172l171-172q11-10 25-10t25 10z m207 136q0-117-57-215t-156-156t-215-58t-216 58t-155 156t-58 215t58 215t155 156t216 58t215-58t156-156t57-215z" horiz-adv-x="857.1" />
<glyph glyph-name="angle-circled-down" unicode="&#xe803;" d="m454 125l253 253q11 11 11 26t-11 25l-57 57q-10 10-25 10t-25-10l-171-172l-172 172q-10 10-25 10t-25-10l-57-57q-10-11-10-25t10-26l253-253q11-10 26-10t25 10z m403 225q0-117-57-215t-156-156t-215-58t-216 58t-155 156t-58 215t58 215t155 156t216 58t215-58t156-156t57-215z" horiz-adv-x="857.1" />
<glyph glyph-name="location" unicode="&#xe80d;" d="m429 493q0 59-42 101t-101 42t-101-42t-42-101t42-101t101-42t101 42t42 101z m142 0q0-61-18-100l-203-432q-9-18-27-29t-37-11t-38 11t-26 29l-204 432q-18 39-18 100q0 118 84 202t202 84t202-84t83-202z" horiz-adv-x="571.4" />
</font>
</defs>
</svg>